GA;popsize;maxgen;optimalValue;avgConsum;tankCap;volCap;elitism;mutationProb;
GA;100;2000;940;1;500;100;1;0.01;

SA;popsize;maxgen;optimalValue;avgConsum;tankCap;volCap;temperature;
SA;100;10000;940;1;500;100;1000;
