SA;popsize;maxgen;optimalValue;avgConsum;tankCap;volCap;temperature;
SA;100;10000;240;1;200;75;1000;

GA;popsize;maxgen;optimalValue;avgConsum;tankCap;volCap;elitism;mutationProb;
GA;50;10000;240;1;200;75;1;0.01;

